\select@language {portuges}
\beamer@sectionintoc {1}{Objetivos Mestrado}{2}{0}{1}
\beamer@sectionintoc {2}{Objetivo em CN}{5}{0}{2}
\beamer@sectionintoc {3}{M\'etodo}{6}{0}{3}
\beamer@sectionintoc {4}{Modelagem}{8}{0}{4}
